\relax 
\providecommand\hyper@newdestlabel[2]{}
\providecommand\HyperFirstAtBeginDocument{\AtBeginDocument}
\HyperFirstAtBeginDocument{\ifx\hyper@anchor\@undefined
\global\let\oldcontentsline\contentsline
\gdef\contentsline#1#2#3#4{\oldcontentsline{#1}{#2}{#3}}
\global\let\oldnewlabel\newlabel
\gdef\newlabel#1#2{\newlabelxx{#1}#2}
\gdef\newlabelxx#1#2#3#4#5#6{\oldnewlabel{#1}{{#2}{#3}}}
\AtEndDocument{\ifx\hyper@anchor\@undefined
\let\contentsline\oldcontentsline
\let\newlabel\oldnewlabel
\fi}
\fi}
\global\let\hyper@last\relax 
\gdef\HyperFirstAtBeginDocument#1{#1}
\providecommand\HyField@AuxAddToFields[1]{}
\providecommand\HyField@AuxAddToCoFields[2]{}
\providecommand\babel@aux[2]{}
\@nameuse{bbl@beforestart}
\catcode `:\active 
\catcode `;\active 
\catcode `!\active 
\catcode `?\active 
\bibstyle{unsrtnat}
\citation{paquier}
\citation{delenne:hal-03619263}
\citation{euler}
\babel@aux{french}{}
\@writefile{toc}{\contentsline {section}{\numberline {1}Introduction}{1}{section.1}\protected@file@percent }
\@writefile{toc}{\contentsline {subsection}{\numberline {1.1}Description du système}{1}{subsection.1.1}\protected@file@percent }
\@writefile{toc}{\contentsline {subsection}{\numberline {1.2}Composition de ce rapport}{1}{subsection.1.2}\protected@file@percent }
\citation{euler_reformulated}
\citation{pdemodelica1}
\@writefile{toc}{\contentsline {section}{\numberline {2}Modèle}{2}{section.2}\protected@file@percent }
\newlabel{eq:mass_conservation}{{2}{2}{Modèle}{equation.2.2}{}}
\newlabel{eq:momentum_conservation}{{3}{2}{Modèle}{equation.2.3}{}}
\newlabel{eq:mass_conservation_reform}{{6}{2}{Modèle}{equation.2.6}{}}
\newlabel{eq:momentum_conservation_reform}{{7}{2}{Modèle}{equation.2.7}{}}
\@writefile{toc}{\contentsline {section}{\numberline {3}Simulation}{2}{section.3}\protected@file@percent }
\@writefile{toc}{\contentsline {subsection}{\numberline {3.1}Dérivées partielles}{3}{subsection.3.1}\protected@file@percent }
\@writefile{toc}{\contentsline {subsection}{\numberline {3.2}Modélisation des obstacles}{3}{subsection.3.2}\protected@file@percent }
\@writefile{toc}{\contentsline {subsection}{\numberline {3.3}Surface du torrent}{4}{subsection.3.3}\protected@file@percent }
\@writefile{toc}{\contentsline {section}{\numberline {4}Résultats}{4}{section.4}\protected@file@percent }
\@writefile{toc}{\contentsline {subsection}{\numberline {4.1}Erreur de simulation}{4}{subsection.4.1}\protected@file@percent }
\@writefile{lof}{\contentsline {figure}{\numberline {1}{\ignorespaces Au fur et à mesure que z croît (selon l'axe de la profondeur ici), la vitesse croît selon x plutôt que z, et finirait par diverger si les points extrêmes de l'espaces étaient affichés. De plus la vitesse change de direction selon les points.\relax }}{4}{figure.caption.1}\protected@file@percent }
\citation{delenne:hal-03619263}
\citation{paquier}
\citation{dodard:inria-00598421}
\citation{kaouachi}
\citation{euler,euler_reformulated}
\citation{modelisation}
\bibdata{references}
\bibcite{paquier}{{1}{2002}{{Paquier}}{{}}}
\bibcite{delenne:hal-03619263}{{2}{2020}{{Delenne}}{{}}}
\bibcite{euler}{{3}{}{{eul}}{{}}}
\bibcite{euler_reformulated}{{4}{}{{eul}}{{}}}
\bibcite{pdemodelica1}{{5}{2017}{{Šilar et~al.}}{{Šilar, Ježek, and Kofránek}}}
\bibcite{dodard:inria-00598421}{{6}{2001}{{Dodard}}{{}}}
\bibcite{kaouachi}{{7}{2021}{{Kaouachi}}{{}}}
\bibcite{modelisation}{{8}{}{{Dupont}}{{}}}
\newlabel{tocindent-1}{0pt}
\newlabel{tocindent0}{0pt}
\newlabel{tocindent1}{4.65pt}
\newlabel{tocindent2}{11.49998pt}
\newlabel{tocindent3}{0pt}
\@writefile{toc}{\contentsline {section}{\numberline {5}État de l'art}{5}{section.5}\protected@file@percent }
\@writefile{toc}{\contentsline {section}{\numberline {6}Conclusion}{5}{section.6}\protected@file@percent }
\@writefile{toc}{\contentsline {section}{R\'ef\'erences}{5}{section*.3}\protected@file@percent }
\newlabel{TotPages}{{5}{5}{}{page.5}{}}
\gdef \@abspage@last{5}
